{
  "totalCheckouts": 119,
  "totalUses": 7,
  "years": [
    {
      "year": 2000,
      "checkouts": 0,
      "uses": 0
    },
    {
      "year": 2001,
      "checkouts": 0,
      "uses": 0
    },
    {
      "year": 2002,
      "checkouts": 0,
      "uses": 0
    },
    {
      "year": 2003,
      "checkouts": 0,
      "uses": 0
    },
    {
      "year": 2004,
      "checkouts": 0,
      "uses": 0
    },
    {
      "year": 2005,
      "checkouts": 0,
      "uses": 0
    },
    {
      "year": 2006,
      "checkouts": 0,
      "uses": 0
    },
    {
      "year": 2007,
      "checkouts": 15,
      "uses": 0
    },
    {
      "year": 2008,
      "checkouts": 13,
      "uses": 0
    },
    {
      "year": 2009,
      "checkouts": 13,
      "uses": 3
    },
    {
      "year": 2010,
      "checkouts": 7,
      "uses": 0
    },
    {
      "year": 2011,
      "checkouts": 18,
      "uses": 1
    },
    {
      "year": 2012,
      "checkouts": 21,
      "uses": 2
    },
    {
      "year": 2013,
      "checkouts": 12,
      "uses": 0
    },
    {
      "year": 2014,
      "checkouts": 10,
      "uses": 1
    },
    {
      "year": 2015,
      "checkouts": 6,
      "uses": 0
    },
    {
      "year": 2016,
      "checkouts": 1,
      "uses": 0
    },
    {
      "year": 2017,
      "checkouts": 3,
      "uses": 0
    }
  ]
}
